<?xml version="1.0" encoding="utf-8"?>
<!DOCTYPE eagle SYSTEM "eagle.dtd">
<eagle version="9.6.2">
<drawing>
<settings>
<setting alwaysvectorfont="no"/>
<setting keepoldvectorfont="yes"/>
<setting verticaltext="up"/>
</settings>
<grid distance="0.1" unitdist="inch" unit="inch" style="lines" multiple="1" display="no" altdistance="0.01" altunitdist="inch" altunit="inch"/>
<layers>
<layer number="1" name="Top" color="4" fill="1" visible="yes" active="yes"/>
<layer number="16" name="Bottom" color="1" fill="1" visible="yes" active="yes"/>
<layer number="17" name="Pads" color="2" fill="1" visible="yes" active="yes"/>
<layer number="18" name="Vias" color="2" fill="1" visible="yes" active="yes"/>
<layer number="19" name="Unrouted" color="6" fill="1" visible="yes" active="yes"/>
<layer number="20" name="Dimension" color="15" fill="1" visible="yes" active="yes"/>
<layer number="21" name="tPlace" color="7" fill="1" visible="yes" active="yes"/>
<layer number="22" name="bPlace" color="7" fill="1" visible="yes" active="yes"/>
<layer number="23" name="tOrigins" color="15" fill="1" visible="yes" active="yes"/>
<layer number="24" name="bOrigins" color="15" fill="1" visible="yes" active="yes"/>
<layer number="25" name="tNames" color="7" fill="1" visible="yes" active="yes"/>
<layer number="26" name="bNames" color="7" fill="1" visible="yes" active="yes"/>
<layer number="27" name="tValues" color="7" fill="1" visible="yes" active="yes"/>
<layer number="28" name="bValues" color="7" fill="1" visible="yes" active="yes"/>
<layer number="29" name="tStop" color="7" fill="3" visible="yes" active="yes"/>
<layer number="30" name="bStop" color="7" fill="6" visible="no" active="yes"/>
<layer number="31" name="tCream" color="7" fill="4" visible="yes" active="yes"/>
<layer number="32" name="bCream" color="7" fill="5" visible="no" active="yes"/>
<layer number="33" name="tFinish" color="6" fill="3" visible="no" active="yes"/>
<layer number="34" name="bFinish" color="6" fill="6" visible="no" active="yes"/>
<layer number="35" name="tGlue" color="7" fill="4" visible="no" active="yes"/>
<layer number="36" name="bGlue" color="7" fill="5" visible="no" active="yes"/>
<layer number="37" name="tTest" color="7" fill="1" visible="no" active="yes"/>
<layer number="38" name="bTest" color="7" fill="1" visible="no" active="yes"/>
<layer number="39" name="tKeepout" color="4" fill="11" visible="yes" active="yes"/>
<layer number="40" name="bKeepout" color="1" fill="11" visible="yes" active="yes"/>
<layer number="41" name="tRestrict" color="4" fill="10" visible="yes" active="yes"/>
<layer number="42" name="bRestrict" color="1" fill="10" visible="yes" active="yes"/>
<layer number="43" name="vRestrict" color="2" fill="10" visible="yes" active="yes"/>
<layer number="44" name="Drills" color="7" fill="1" visible="no" active="yes"/>
<layer number="45" name="Holes" color="7" fill="1" visible="no" active="yes"/>
<layer number="46" name="Milling" color="3" fill="1" visible="no" active="yes"/>
<layer number="47" name="Measures" color="7" fill="1" visible="no" active="yes"/>
<layer number="48" name="Document" color="7" fill="1" visible="yes" active="yes"/>
<layer number="49" name="Reference" color="7" fill="1" visible="yes" active="yes"/>
<layer number="51" name="tDocu" color="7" fill="1" visible="yes" active="yes"/>
<layer number="52" name="bDocu" color="7" fill="1" visible="yes" active="yes"/>
<layer number="90" name="Modules" color="5" fill="1" visible="yes" active="yes"/>
<layer number="91" name="Nets" color="2" fill="1" visible="yes" active="yes"/>
<layer number="92" name="Busses" color="1" fill="1" visible="yes" active="yes"/>
<layer number="93" name="Pins" color="2" fill="1" visible="yes" active="yes"/>
<layer number="94" name="Symbols" color="4" fill="1" visible="yes" active="yes"/>
<layer number="95" name="Names" color="7" fill="1" visible="yes" active="yes"/>
<layer number="96" name="Values" color="7" fill="1" visible="yes" active="yes"/>
<layer number="97" name="Info" color="7" fill="1" visible="yes" active="yes"/>
<layer number="98" name="Guide" color="6" fill="1" visible="yes" active="yes"/>
</layers>
<library>
<packages>
<package name="DIP762W50P254L495H455Q4">
<circle x="-4.91" y="1.27" radius="0.1" width="0.2" layer="21"/>
<circle x="-4.91" y="1.27" radius="0.1" width="0.2" layer="51"/>
<wire x1="-3.25" y1="2.3" x2="3.25" y2="2.3" width="0.127" layer="51"/>
<wire x1="-3.25" y1="-2.3" x2="3.25" y2="-2.3" width="0.127" layer="51"/>
<wire x1="-3.25" y1="2.3" x2="3.25" y2="2.3" width="0.127" layer="21"/>
<wire x1="-3.25" y1="-2.3" x2="3.25" y2="-2.3" width="0.127" layer="21"/>
<wire x1="-3.25" y1="2.3" x2="-3.25" y2="-2.3" width="0.127" layer="51"/>
<wire x1="3.25" y1="2.3" x2="3.25" y2="-2.3" width="0.127" layer="51"/>
<wire x1="4.7" y1="2.55" x2="-4.7" y2="2.55" width="0.05" layer="39"/>
<wire x1="4.7" y1="-2.55" x2="-4.7" y2="-2.55" width="0.05" layer="39"/>
<wire x1="4.7" y1="2.55" x2="4.7" y2="-2.55" width="0.05" layer="39"/>
<wire x1="-4.7" y1="2.55" x2="-4.7" y2="-2.55" width="0.05" layer="39"/>
<text x="-4.1" y="-2.727" size="1.27" layer="27" align="top-left">&gt;VALUE</text>
<text x="-4.1" y="2.727" size="1.27" layer="25">&gt;NAME</text>
<pad name="1" x="-3.81" y="1.27" drill="0.84" diameter="1.26" shape="square"/>
<pad name="2" x="-3.81" y="-1.27" drill="0.84" diameter="1.26"/>
<pad name="3" x="3.81" y="-1.27" drill="0.84" diameter="1.26"/>
<pad name="4" x="3.81" y="1.27" drill="0.84" diameter="1.26"/>
</package>
</packages>
<symbols>
<symbol name="G3VM-61A1">
<wire x1="-10.16" y1="5.08" x2="10.16" y2="5.08" width="0.254" layer="94"/>
<wire x1="10.16" y1="5.08" x2="10.16" y2="-5.08" width="0.254" layer="94"/>
<wire x1="10.16" y1="-5.08" x2="-10.16" y2="-5.08" width="0.254" layer="94"/>
<wire x1="-10.16" y1="-5.08" x2="-10.16" y2="5.08" width="0.254" layer="94"/>
<pin name="D_IN" x="-15.24" y="2.54" length="middle"/>
<pin name="D_OUT" x="-15.24" y="-2.54" length="middle"/>
<pin name="OUT" x="15.24" y="2.54" length="middle" rot="R180"/>
<pin name="GND" x="15.24" y="-2.54" length="middle" rot="R180"/>
</symbol>
</symbols>
<devicesets>
<deviceset name="G3VM-61A1">
<gates>
<gate name="G$1" symbol="G3VM-61A1" x="0" y="0"/>
</gates>
<devices>
<device name="" package="DIP762W50P254L495H455Q4">
<connects>
<connect gate="G$1" pin="D_IN" pad="1"/>
<connect gate="G$1" pin="D_OUT" pad="2"/>
<connect gate="G$1" pin="GND" pad="3"/>
<connect gate="G$1" pin="OUT" pad="4"/>
</connects>
<technologies>
<technology name=""/>
</technologies>
</device>
</devices>
</deviceset>
</devicesets>
</library>
</drawing>
</eagle>
