<?xml version="1.0" encoding="utf-8"?>
<!DOCTYPE eagle SYSTEM "eagle.dtd">
<eagle version="9.6.2">
<drawing>
<settings>
<setting alwaysvectorfont="no"/>
<setting verticaltext="up"/>
</settings>
<grid distance="0.1" unitdist="inch" unit="inch" style="lines" multiple="1" display="no" altdistance="0.01" altunitdist="inch" altunit="inch"/>
<layers>
<layer number="1" name="Top" color="4" fill="1" visible="yes" active="yes"/>
<layer number="2" name="Route2" color="16" fill="1" visible="no" active="yes"/>
<layer number="3" name="Route3" color="17" fill="1" visible="no" active="yes"/>
<layer number="4" name="Route4" color="18" fill="1" visible="no" active="yes"/>
<layer number="5" name="Route5" color="19" fill="1" visible="no" active="yes"/>
<layer number="6" name="Route6" color="25" fill="1" visible="no" active="yes"/>
<layer number="7" name="Route7" color="26" fill="1" visible="no" active="yes"/>
<layer number="8" name="Route8" color="27" fill="1" visible="no" active="yes"/>
<layer number="9" name="Route9" color="28" fill="1" visible="no" active="yes"/>
<layer number="10" name="Route10" color="29" fill="1" visible="no" active="yes"/>
<layer number="11" name="Route11" color="30" fill="1" visible="no" active="yes"/>
<layer number="12" name="Route12" color="20" fill="1" visible="no" active="yes"/>
<layer number="13" name="Route13" color="21" fill="1" visible="no" active="yes"/>
<layer number="14" name="Route14" color="22" fill="1" visible="no" active="yes"/>
<layer number="15" name="Route15" color="23" fill="1" visible="no" active="yes"/>
<layer number="16" name="Bottom" color="1" fill="1" visible="yes" active="yes"/>
<layer number="17" name="Pads" color="2" fill="1" visible="yes" active="yes"/>
<layer number="18" name="Vias" color="2" fill="1" visible="yes" active="yes"/>
<layer number="19" name="Unrouted" color="6" fill="1" visible="yes" active="yes"/>
<layer number="20" name="Dimension" color="24" fill="1" visible="yes" active="yes"/>
<layer number="21" name="tPlace" color="7" fill="1" visible="yes" active="yes"/>
<layer number="22" name="bPlace" color="7" fill="1" visible="yes" active="yes"/>
<layer number="23" name="tOrigins" color="15" fill="1" visible="yes" active="yes"/>
<layer number="24" name="bOrigins" color="15" fill="1" visible="yes" active="yes"/>
<layer number="25" name="tNames" color="7" fill="1" visible="yes" active="yes"/>
<layer number="26" name="bNames" color="7" fill="1" visible="yes" active="yes"/>
<layer number="27" name="tValues" color="7" fill="1" visible="yes" active="yes"/>
<layer number="28" name="bValues" color="7" fill="1" visible="yes" active="yes"/>
<layer number="29" name="tStop" color="7" fill="3" visible="no" active="yes"/>
<layer number="30" name="bStop" color="7" fill="6" visible="no" active="yes"/>
<layer number="31" name="tCream" color="7" fill="4" visible="no" active="yes"/>
<layer number="32" name="bCream" color="7" fill="5" visible="no" active="yes"/>
<layer number="33" name="tFinish" color="6" fill="3" visible="no" active="yes"/>
<layer number="34" name="bFinish" color="6" fill="6" visible="no" active="yes"/>
<layer number="35" name="tGlue" color="7" fill="4" visible="no" active="yes"/>
<layer number="36" name="bGlue" color="7" fill="5" visible="no" active="yes"/>
<layer number="37" name="tTest" color="7" fill="1" visible="no" active="yes"/>
<layer number="38" name="bTest" color="7" fill="1" visible="no" active="yes"/>
<layer number="39" name="tKeepout" color="4" fill="11" visible="yes" active="yes"/>
<layer number="40" name="bKeepout" color="1" fill="11" visible="yes" active="yes"/>
<layer number="41" name="tRestrict" color="4" fill="10" visible="yes" active="yes"/>
<layer number="42" name="bRestrict" color="1" fill="10" visible="yes" active="yes"/>
<layer number="43" name="vRestrict" color="2" fill="10" visible="yes" active="yes"/>
<layer number="44" name="Drills" color="7" fill="1" visible="no" active="yes"/>
<layer number="45" name="Holes" color="7" fill="1" visible="no" active="yes"/>
<layer number="46" name="Milling" color="3" fill="1" visible="no" active="yes"/>
<layer number="47" name="Measures" color="7" fill="1" visible="no" active="yes"/>
<layer number="48" name="Document" color="7" fill="1" visible="yes" active="yes"/>
<layer number="49" name="Reference" color="7" fill="1" visible="yes" active="yes"/>
<layer number="51" name="tDocu" color="7" fill="1" visible="yes" active="yes"/>
<layer number="52" name="bDocu" color="7" fill="1" visible="yes" active="yes"/>
<layer number="88" name="SimResults" color="9" fill="1" visible="yes" active="yes"/>
<layer number="89" name="SimProbes" color="9" fill="1" visible="yes" active="yes"/>
<layer number="90" name="Modules" color="5" fill="1" visible="yes" active="yes"/>
<layer number="91" name="Nets" color="2" fill="1" visible="yes" active="yes"/>
<layer number="92" name="Busses" color="1" fill="1" visible="yes" active="yes"/>
<layer number="93" name="Pins" color="2" fill="1" visible="yes" active="yes"/>
<layer number="94" name="Symbols" color="4" fill="1" visible="yes" active="yes"/>
<layer number="95" name="Names" color="7" fill="1" visible="yes" active="yes"/>
<layer number="96" name="Values" color="7" fill="1" visible="yes" active="yes"/>
<layer number="97" name="Info" color="7" fill="1" visible="yes" active="yes"/>
<layer number="98" name="Guide" color="6" fill="1" visible="yes" active="yes"/>
<layer number="99" name="SpiceOrder" color="7" fill="1" visible="yes" active="yes"/>
</layers>
<library>
<packages>
<package name="SOIC127P600X144-8" urn="urn:adsk.eagle:footprint:9256955/1">
<description>8-SOIC, 1.27 mm pitch, 6.00 mm span, 4.90 X 3.90 X 1.44 mm body
&lt;p&gt;8-pin SOIC package with 1.27 mm pitch, 6.00 mm span with body size 4.90 X 3.90 X 1.44 mm&lt;/p&gt;</description>
<circle x="-2.678" y="2.7086" radius="0.25" width="0" layer="21"/>
<wire x1="-1.95" y1="2.5186" x2="1.95" y2="2.5186" width="0.12" layer="21"/>
<wire x1="-1.95" y1="-2.5186" x2="1.95" y2="-2.5186" width="0.12" layer="21"/>
<wire x1="1.95" y1="-2.45" x2="-1.95" y2="-2.45" width="0.12" layer="51"/>
<wire x1="-1.95" y1="-2.45" x2="-1.95" y2="2.45" width="0.12" layer="51"/>
<wire x1="-1.95" y1="2.45" x2="1.95" y2="2.45" width="0.12" layer="51"/>
<wire x1="1.95" y1="2.45" x2="1.95" y2="-2.45" width="0.12" layer="51"/>
<smd name="1" x="-2.4554" y="1.905" dx="1.901" dy="0.5991" layer="1"/>
<smd name="2" x="-2.4554" y="0.635" dx="1.901" dy="0.5991" layer="1"/>
<smd name="3" x="-2.4554" y="-0.635" dx="1.901" dy="0.5991" layer="1"/>
<smd name="4" x="-2.4554" y="-1.905" dx="1.901" dy="0.5991" layer="1"/>
<smd name="5" x="2.4554" y="-1.905" dx="1.901" dy="0.5991" layer="1"/>
<smd name="6" x="2.4554" y="-0.635" dx="1.901" dy="0.5991" layer="1"/>
<smd name="7" x="2.4554" y="0.635" dx="1.901" dy="0.5991" layer="1"/>
<smd name="8" x="2.4554" y="1.905" dx="1.901" dy="0.5991" layer="1"/>
<text x="0" y="3.5936" size="1.27" layer="25" align="bottom-center">&gt;NAME</text>
<text x="0" y="-3.1536" size="1.27" layer="27" align="top-center">&gt;VALUE</text>
</package>
<package name="SOIC127P599X175-8N" urn="urn:adsk.eagle:footprint:18494148/1">
<description>8-SOIC, 1.27 mm pitch, 6.00 mm span, 4.91 X 3.90 X 1.75 mm body
&lt;p&gt;8-pin SOIC package with 1.27 mm pitch, 6.00 mm span with body size 4.91 X 3.90 X 1.75 mm&lt;/p&gt;</description>
<circle x="-2.7214" y="2.7099" radius="0.25" width="0" layer="21"/>
<wire x1="-1.99" y1="2.4599" x2="-1.99" y2="2.5" width="0.12" layer="21"/>
<wire x1="-1.99" y1="2.5" x2="1.99" y2="2.5" width="0.12" layer="21"/>
<wire x1="1.99" y1="2.5" x2="1.99" y2="2.4599" width="0.12" layer="21"/>
<wire x1="-1.99" y1="-2.4599" x2="-1.99" y2="-2.5" width="0.12" layer="21"/>
<wire x1="-1.99" y1="-2.5" x2="1.99" y2="-2.5" width="0.12" layer="21"/>
<wire x1="1.99" y1="-2.5" x2="1.99" y2="-2.4599" width="0.12" layer="21"/>
<wire x1="1.99" y1="-2.5" x2="-1.99" y2="-2.5" width="0.12" layer="51"/>
<wire x1="-1.99" y1="-2.5" x2="-1.99" y2="2.5" width="0.12" layer="51"/>
<wire x1="-1.99" y1="2.5" x2="1.99" y2="2.5" width="0.12" layer="51"/>
<wire x1="1.99" y1="2.5" x2="1.99" y2="-2.5" width="0.12" layer="51"/>
<smd name="1" x="-2.4701" y="1.905" dx="1.9654" dy="0.6019" layer="1" roundness="20"/>
<smd name="2" x="-2.4701" y="0.635" dx="1.9654" dy="0.6019" layer="1" roundness="20"/>
<smd name="3" x="-2.4701" y="-0.635" dx="1.9654" dy="0.6019" layer="1" roundness="20"/>
<smd name="4" x="-2.4701" y="-1.905" dx="1.9654" dy="0.6019" layer="1" roundness="20"/>
<smd name="5" x="2.4701" y="-1.905" dx="1.9654" dy="0.6019" layer="1" roundness="20"/>
<smd name="6" x="2.4701" y="-0.635" dx="1.9654" dy="0.6019" layer="1" roundness="20"/>
<smd name="7" x="2.4701" y="0.635" dx="1.9654" dy="0.6019" layer="1" roundness="20"/>
<smd name="8" x="2.4701" y="1.905" dx="1.9654" dy="0.6019" layer="1" roundness="20"/>
<text x="0" y="3.5949" size="1.27" layer="25" align="bottom-center">&gt;NAME</text>
<text x="0" y="-3.135" size="1.27" layer="27" align="top-center">&gt;VALUE</text>
</package>
<package name="TSSOP14" urn="urn:adsk.eagle:footprint:20706/1">
<description>&lt;b&gt;14-Lead Plastic Thin Shrink Small Outline (ST)&lt;/b&gt; - 4.4 mm Body  TSSOP &lt;/b&gt;&lt;p&gt;
Source: http://ww1.microchip.com/downloads/en/DeviceDoc/40039E.pdf</description>
<wire x1="2.455" y1="-2.15" x2="-2.455" y2="-2.15" width="0.2032" layer="21"/>
<wire x1="-2.455" y1="-2.15" x2="-2.455" y2="2.15" width="0.2032" layer="21"/>
<wire x1="2.455" y1="2.15" x2="2.455" y2="-2.15" width="0.2032" layer="21"/>
<wire x1="-2.455" y1="2.15" x2="2.455" y2="2.15" width="0.2032" layer="21"/>
<circle x="-1.825" y="-1.525" radius="0.375" width="0" layer="21"/>
<smd name="1" x="-1.95" y="-2.825" dx="0.35" dy="1" layer="1"/>
<smd name="2" x="-1.3" y="-2.825" dx="0.35" dy="1" layer="1"/>
<smd name="3" x="-0.65" y="-2.825" dx="0.35" dy="1" layer="1"/>
<smd name="4" x="0" y="-2.825" dx="0.35" dy="1" layer="1"/>
<smd name="5" x="0.65" y="-2.825" dx="0.35" dy="1" layer="1"/>
<smd name="6" x="1.3" y="-2.825" dx="0.35" dy="1" layer="1"/>
<smd name="7" x="1.95" y="-2.825" dx="0.35" dy="1" layer="1"/>
<smd name="8" x="1.95" y="2.825" dx="0.35" dy="1" layer="1" rot="R180"/>
<smd name="9" x="1.3" y="2.825" dx="0.35" dy="1" layer="1" rot="R180"/>
<smd name="10" x="0.65" y="2.825" dx="0.35" dy="1" layer="1" rot="R180"/>
<smd name="11" x="0" y="2.825" dx="0.35" dy="1" layer="1" rot="R180"/>
<smd name="12" x="-0.65" y="2.825" dx="0.35" dy="1" layer="1" rot="R180"/>
<smd name="13" x="-1.3" y="2.825" dx="0.35" dy="1" layer="1" rot="R180"/>
<smd name="14" x="-1.95" y="2.825" dx="0.35" dy="1" layer="1" rot="R180"/>
<text x="-2.6" y="-2.6" size="1.27" layer="25" rot="R90">&gt;NAME</text>
<text x="3.9" y="-3.25" size="1.27" layer="27" rot="R90">&gt;VALUE</text>
<rectangle x1="-2.1" y1="-3.2" x2="-1.8" y2="-2.225" layer="51"/>
<rectangle x1="-1.45" y1="-3.2" x2="-1.15" y2="-2.225" layer="51"/>
<rectangle x1="-0.8" y1="-3.2" x2="-0.5" y2="-2.225" layer="51"/>
<rectangle x1="-0.15" y1="-3.2" x2="0.15" y2="-2.225" layer="51"/>
<rectangle x1="0.5" y1="-3.2" x2="0.8" y2="-2.225" layer="51"/>
<rectangle x1="1.15" y1="-3.2" x2="1.45" y2="-2.225" layer="51"/>
<rectangle x1="1.8" y1="-3.2" x2="2.1" y2="-2.225" layer="51"/>
<rectangle x1="1.8" y1="2.225" x2="2.1" y2="3.2" layer="51" rot="R180"/>
<rectangle x1="1.15" y1="2.225" x2="1.45" y2="3.2" layer="51" rot="R180"/>
<rectangle x1="0.5" y1="2.225" x2="0.8" y2="3.2" layer="51" rot="R180"/>
<rectangle x1="-0.15" y1="2.225" x2="0.15" y2="3.2" layer="51" rot="R180"/>
<rectangle x1="-0.8" y1="2.225" x2="-0.5" y2="3.2" layer="51" rot="R180"/>
<rectangle x1="-1.45" y1="2.225" x2="-1.15" y2="3.2" layer="51" rot="R180"/>
<rectangle x1="-2.1" y1="2.225" x2="-1.8" y2="3.2" layer="51" rot="R180"/>
</package>
<package name="SMB" urn="urn:adsk.eagle:footprint:43181/1">
<description>&lt;B&gt;DIODE&lt;/B&gt;</description>
<wire x1="-2.2606" y1="1.905" x2="2.2606" y2="1.905" width="0.1016" layer="21"/>
<wire x1="-2.2606" y1="-1.905" x2="2.2606" y2="-1.905" width="0.1016" layer="21"/>
<wire x1="-2.2606" y1="-1.905" x2="-2.2606" y2="1.905" width="0.1016" layer="51"/>
<wire x1="2.2606" y1="-1.905" x2="2.2606" y2="1.905" width="0.1016" layer="51"/>
<wire x1="0.193" y1="1" x2="-0.83" y2="0" width="0.2032" layer="21"/>
<wire x1="-0.83" y1="0" x2="0.193" y2="-1" width="0.2032" layer="21"/>
<wire x1="0.193" y1="-1" x2="0.193" y2="1" width="0.2032" layer="21"/>
<smd name="C" x="-2.2" y="0" dx="2.4" dy="2.4" layer="1"/>
<smd name="A" x="2.2" y="0" dx="2.4" dy="2.4" layer="1"/>
<text x="-2.159" y="2.159" size="1.27" layer="25">&gt;NAME</text>
<text x="-2.159" y="-3.429" size="1.27" layer="27">&gt;VALUE</text>
<rectangle x1="-2.794" y1="-1.0922" x2="-2.2606" y2="1.0922" layer="51"/>
<rectangle x1="2.2606" y1="-1.0922" x2="2.794" y2="1.0922" layer="51"/>
<rectangle x1="-1.35" y1="-1.9" x2="-0.8" y2="1.9" layer="51"/>
</package>
<package name="SOD523" urn="urn:adsk.eagle:footprint:43179/1">
<description>&lt;B&gt;DIODE&lt;/B&gt;</description>
<wire x1="-0.59" y1="0.4" x2="0.59" y2="0.4" width="0.1016" layer="51"/>
<wire x1="0.59" y1="0.4" x2="0.59" y2="-0.4" width="0.1016" layer="51"/>
<wire x1="0.59" y1="-0.4" x2="-0.59" y2="-0.4" width="0.1016" layer="51"/>
<wire x1="-0.59" y1="-0.4" x2="-0.59" y2="0.4" width="0.1016" layer="51"/>
<smd name="A" x="0.7" y="0" dx="0.7" dy="0.5" layer="1"/>
<smd name="C" x="-0.6" y="0" dx="0.7" dy="0.5" layer="1"/>
<text x="-0.635" y="0.635" size="1.27" layer="25">&gt;NAME</text>
<text x="-0.635" y="-1.905" size="1.27" layer="27">&gt;VALUE</text>
<rectangle x1="-0.75" y1="-0.17" x2="-0.54" y2="0.17" layer="51"/>
<rectangle x1="0.54" y1="-0.17" x2="0.75" y2="0.17" layer="51"/>
<rectangle x1="-0.59" y1="-0.4" x2="-0.3" y2="0.4" layer="51"/>
</package>
</packages>
<packages3d>
<package3d name="SOIC127P599X175-8N" urn="urn:adsk.eagle:package:18494142/1" type="model">
<description>8-SOIC, 1.27 mm pitch, 6.00 mm span, 4.91 X 3.90 X 1.75 mm body
&lt;p&gt;8-pin SOIC package with 1.27 mm pitch, 6.00 mm span with body size 4.91 X 3.90 X 1.75 mm&lt;/p&gt;</description>
<packageinstances>
<packageinstance name="SOIC127P599X175-8N"/>
</packageinstances>
</package3d>
</packages3d>
<symbols>
<symbol name="L6398">
<wire x1="-10.16" y1="10.16" x2="10.16" y2="10.16" width="0.254" layer="94"/>
<wire x1="10.16" y1="10.16" x2="10.16" y2="-10.16" width="0.254" layer="94"/>
<wire x1="10.16" y1="-10.16" x2="-10.16" y2="-10.16" width="0.254" layer="94"/>
<wire x1="-10.16" y1="-10.16" x2="-10.16" y2="10.16" width="0.254" layer="94"/>
<pin name="VCC" x="-15.24" y="7.62" length="middle"/>
<pin name="LIN" x="-15.24" y="2.54" length="middle"/>
<pin name="HIN" x="-15.24" y="-2.54" length="middle"/>
<pin name="GND" x="-15.24" y="-7.62" length="middle"/>
<pin name="BOOT" x="15.24" y="7.62" length="middle" rot="R180"/>
<pin name="HVG" x="15.24" y="2.54" length="middle" rot="R180"/>
<pin name="OUT" x="15.24" y="-2.54" length="middle" rot="R180"/>
<pin name="LVG" x="15.24" y="-7.62" length="middle" rot="R180"/>
</symbol>
<symbol name="TSV331">
</symbol>
<symbol name="OPAMP">
<description>Operational amplifier with power pins</description>
<pin name="P" x="-12.7" y="5.08" visible="off" length="middle"/>
<pin name="N" x="-12.7" y="-5.08" visible="off" length="middle"/>
<pin name="VDD" x="2.54" y="10.16" visible="off" length="middle" direction="pwr" rot="R270"/>
<pin name="VSS" x="2.54" y="-10.16" visible="off" length="middle" direction="pwr" rot="R90"/>
<pin name="VOUT" x="17.78" y="0" visible="off" length="middle" rot="R180"/>
<wire x1="-7.62" y1="10.16" x2="-7.62" y2="2.54" width="0.254" layer="94"/>
<wire x1="-7.62" y1="2.54" x2="-7.62" y2="-2.54" width="0.254" layer="94"/>
<wire x1="-7.62" y1="-2.54" x2="-7.62" y2="-10.16" width="0.254" layer="94"/>
<wire x1="-7.62" y1="-10.16" x2="12.7" y2="0" width="0.254" layer="94"/>
<wire x1="12.7" y1="0" x2="-7.62" y2="10.16" width="0.254" layer="94"/>
<wire x1="-6.35" y1="5.08" x2="-3.81" y2="5.08" width="0.254" layer="94"/>
<wire x1="-5.08" y1="6.096" x2="-5.08" y2="3.81" width="0.254" layer="94"/>
<wire x1="-6.35" y1="-5.08" x2="-3.81" y2="-5.08" width="0.254" layer="94"/>
<text x="-1.27" y="2.54" size="1.778" layer="94">VDD</text>
<text x="-1.27" y="-3.81" size="1.778" layer="94">VSS</text>
<text x="7.62" y="-5.08" size="1.778" layer="95">&gt;NAME</text>
<text x="7.62" y="-7.62" size="1.778" layer="97">&gt;SPICEMODEL</text>
<text x="7.62" y="-10.16" size="1.778" layer="97">&gt;SPICEEXTRA</text>
<text x="7.62" y="-12.7" size="1.778" layer="96">&gt;VALUE</text>
</symbol>
<symbol name="OP">
<wire x1="-2.54" y1="5.08" x2="-2.54" y2="-5.08" width="0.254" layer="94"/>
<wire x1="-2.54" y1="-5.08" x2="7.62" y2="0" width="0.254" layer="94"/>
<wire x1="7.62" y1="0" x2="-2.54" y2="5.08" width="0.254" layer="94"/>
<wire x1="-2.032" y1="2.54" x2="-1.016" y2="2.54" width="0.1524" layer="94"/>
<wire x1="-1.524" y1="3.048" x2="-1.524" y2="2.032" width="0.1524" layer="94"/>
<wire x1="-2.032" y1="-2.54" x2="-1.016" y2="-2.54" width="0.1524" layer="94"/>
<text x="3.81" y="3.81" size="1.778" layer="95">&gt;NAME</text>
<text x="3.81" y="-5.08" size="1.778" layer="96">&gt;VALUE</text>
<pin name="IN+" x="-5.08" y="2.54" visible="pad" length="short" direction="in"/>
<pin name="IN-" x="-5.08" y="-2.54" visible="pad" length="short" direction="in"/>
<pin name="OUT" x="10.16" y="0" visible="pad" length="short" direction="out" rot="R180"/>
</symbol>
<symbol name="SCHOTTKY">
<wire x1="-1.27" y1="-1.27" x2="1.27" y2="0" width="0.254" layer="94"/>
<wire x1="1.27" y1="0" x2="-1.27" y2="1.27" width="0.254" layer="94"/>
<wire x1="1.905" y1="1.27" x2="1.27" y2="1.27" width="0.254" layer="94"/>
<wire x1="1.27" y1="1.27" x2="1.27" y2="0" width="0.254" layer="94"/>
<wire x1="-1.27" y1="1.27" x2="-1.27" y2="0" width="0.254" layer="94"/>
<wire x1="-1.27" y1="0" x2="-1.27" y2="-1.27" width="0.254" layer="94"/>
<wire x1="1.27" y1="0" x2="1.27" y2="-1.27" width="0.254" layer="94"/>
<wire x1="1.905" y1="1.27" x2="1.905" y2="1.016" width="0.254" layer="94"/>
<wire x1="1.27" y1="-1.27" x2="0.635" y2="-1.27" width="0.254" layer="94"/>
<wire x1="0.635" y1="-1.016" x2="0.635" y2="-1.27" width="0.254" layer="94"/>
<wire x1="-1.27" y1="0" x2="-2.54" y2="0" width="0.254" layer="94"/>
<wire x1="1.27" y1="0" x2="2.54" y2="0" width="0.254" layer="94"/>
<text x="-2.286" y="1.905" size="1.778" layer="95">&gt;NAME</text>
<text x="-2.286" y="-3.429" size="1.778" layer="96">&gt;VALUE</text>
<pin name="A" x="-2.54" y="0" visible="off" length="point" direction="pas"/>
<pin name="C" x="2.54" y="0" visible="off" length="point" direction="pas" rot="R180"/>
</symbol>
</symbols>
<devicesets>
<deviceset name="L6398D">
<gates>
<gate name="G$1" symbol="L6398" x="0" y="0"/>
</gates>
<devices>
<device name="" package="SOIC127P599X175-8N">
<connects>
<connect gate="G$1" pin="BOOT" pad="8"/>
<connect gate="G$1" pin="GND" pad="4"/>
<connect gate="G$1" pin="HIN" pad="2"/>
<connect gate="G$1" pin="HVG" pad="7"/>
<connect gate="G$1" pin="LIN" pad="1"/>
<connect gate="G$1" pin="LVG" pad="5"/>
<connect gate="G$1" pin="OUT" pad="6"/>
<connect gate="G$1" pin="VCC" pad="3"/>
</connects>
<package3dinstances>
<package3dinstance package3d_urn="urn:adsk.eagle:package:18494142/1"/>
</package3dinstances>
<technologies>
<technology name=""/>
</technologies>
</device>
</devices>
</deviceset>
<deviceset name="TSV994IPT">
<gates>
<gate name="G$1" symbol="OPAMP" x="-22.86" y="15.24"/>
<gate name="G$2" symbol="OP" x="25.4" y="22.86"/>
<gate name="G$3" symbol="OP" x="25.4" y="7.62"/>
<gate name="G$4" symbol="OP" x="25.4" y="-7.62"/>
</gates>
<devices>
<device name="" package="TSSOP14">
<connects>
<connect gate="G$1" pin="N" pad="2"/>
<connect gate="G$1" pin="P" pad="3"/>
<connect gate="G$1" pin="VDD" pad="4"/>
<connect gate="G$1" pin="VOUT" pad="1"/>
<connect gate="G$1" pin="VSS" pad="11"/>
<connect gate="G$2" pin="IN+" pad="5"/>
<connect gate="G$2" pin="IN-" pad="6"/>
<connect gate="G$2" pin="OUT" pad="7"/>
<connect gate="G$3" pin="IN+" pad="10"/>
<connect gate="G$3" pin="IN-" pad="9"/>
<connect gate="G$3" pin="OUT" pad="8"/>
<connect gate="G$4" pin="IN+" pad="12"/>
<connect gate="G$4" pin="IN-" pad="13"/>
<connect gate="G$4" pin="OUT" pad="14"/>
</connects>
<technologies>
<technology name=""/>
</technologies>
</device>
</devices>
</deviceset>
<deviceset name="SMBJ48A-TR">
<gates>
<gate name="G$1" symbol="SCHOTTKY" x="0" y="0"/>
</gates>
<devices>
<device name="" package="SMB">
<connects>
<connect gate="G$1" pin="A" pad="A"/>
<connect gate="G$1" pin="C" pad="C"/>
</connects>
<technologies>
<technology name=""/>
</technologies>
</device>
</devices>
</deviceset>
<deviceset name="BAT30KFILM">
<gates>
<gate name="G$1" symbol="SCHOTTKY" x="0" y="0"/>
</gates>
<devices>
<device name="" package="SOD523">
<connects>
<connect gate="G$1" pin="A" pad="A"/>
<connect gate="G$1" pin="C" pad="C"/>
</connects>
<technologies>
<technology name=""/>
</technologies>
</device>
</devices>
</deviceset>
</devicesets>
</library>
</drawing>
<compatibility>
<note version="8.3" severity="warning">
Since Version 8.3, EAGLE supports URNs for individual library
assets (packages, symbols, and devices). The URNs of those assets
will not be understood (or retained) with this version.
</note>
<note version="8.3" severity="warning">
Since Version 8.3, EAGLE supports the association of 3D packages
with devices in libraries, schematics, and board files. Those 3D
packages will not be understood (or retained) with this version.
</note>
</compatibility>
</eagle>
