<!--This work is licensed under a Creative Commons Attribution-ShareAlike 4.0 International License (CC BY-SA) with Design Exception 1.0-->
<eagle version="7.1.0">
<drawing>
<settings>
<setting alwaysvectorfont="no"/>
<setting verticaltext="up"/>
</settings>
<grid distance="0.1" unitdist="inch" unit="inch" style="lines" multiple="1" display="no" altdistance="0.01" altunitdist="inch" altunit="inch"/>
<layers>
<layer number="1" name="Top" color="4" fill="1" visible="yes" active="yes"/>
<layer number="16" name="Bottom" color="1" fill="1" visible="yes" active="yes"/>
<layer number="17" name="Pads" color="2" fill="1" visible="yes" active="yes"/>
<layer number="18" name="Vias" color="2" fill="1" visible="yes" active="yes"/>
<layer number="19" name="Unrouted" color="6" fill="1" visible="yes" active="yes"/>
<layer number="20" name="Dimension" color="15" fill="1" visible="yes" active="yes"/>
<layer number="21" name="tPlace" color="7" fill="1" visible="yes" active="yes"/>
<layer number="22" name="bPlace" color="7" fill="1" visible="yes" active="yes"/>
<layer number="23" name="tOrigins" color="15" fill="1" visible="yes" active="yes"/>
<layer number="24" name="bOrigins" color="15" fill="1" visible="yes" active="yes"/>
<layer number="25" name="tNames" color="7" fill="1" visible="yes" active="yes"/>
<layer number="26" name="bNames" color="7" fill="1" visible="yes" active="yes"/>
<layer number="27" name="tValues" color="7" fill="1" visible="yes" active="yes"/>
<layer number="28" name="bValues" color="7" fill="1" visible="yes" active="yes"/>
<layer number="29" name="tStop" color="7" fill="3" visible="yes" active="yes"/>
<layer number="30" name="bStop" color="7" fill="6" visible="no" active="yes"/>
<layer number="31" name="tCream" color="7" fill="4" visible="yes" active="yes"/>
<layer number="32" name="bCream" color="7" fill="5" visible="no" active="yes"/>
<layer number="33" name="tFinish" color="6" fill="3" visible="no" active="yes"/>
<layer number="34" name="bFinish" color="6" fill="6" visible="no" active="yes"/>
<layer number="35" name="tGlue" color="7" fill="4" visible="no" active="yes"/>
<layer number="36" name="bGlue" color="7" fill="5" visible="no" active="yes"/>
<layer number="37" name="tTest" color="7" fill="1" visible="no" active="yes"/>
<layer number="38" name="bTest" color="7" fill="1" visible="no" active="yes"/>
<layer number="39" name="tKeepout" color="4" fill="11" visible="yes" active="yes"/>
<layer number="40" name="bKeepout" color="1" fill="11" visible="yes" active="yes"/>
<layer number="41" name="tRestrict" color="4" fill="10" visible="yes" active="yes"/>
<layer number="42" name="bRestrict" color="1" fill="10" visible="yes" active="yes"/>
<layer number="43" name="vRestrict" color="2" fill="10" visible="yes" active="yes"/>
<layer number="44" name="Drills" color="7" fill="1" visible="no" active="yes"/>
<layer number="45" name="Holes" color="7" fill="1" visible="no" active="yes"/>
<layer number="46" name="Milling" color="3" fill="1" visible="no" active="yes"/>
<layer number="47" name="Measures" color="7" fill="1" visible="no" active="yes"/>
<layer number="48" name="Document" color="7" fill="1" visible="yes" active="yes"/>
<layer number="49" name="Reference" color="7" fill="1" visible="yes" active="yes"/>
<layer number="51" name="tDocu" color="7" fill="1" visible="yes" active="yes"/>
<layer number="52" name="bDocu" color="7" fill="1" visible="yes" active="yes"/>
<layer number="90" name="Modules" color="5" fill="1" visible="yes" active="yes"/>
<layer number="91" name="Nets" color="2" fill="1" visible="yes" active="yes"/>
<layer number="92" name="Busses" color="1" fill="1" visible="yes" active="yes"/>
<layer number="93" name="Pins" color="2" fill="1" visible="yes" active="yes"/>
<layer number="94" name="Symbols" color="4" fill="1" visible="yes" active="yes"/>
<layer number="95" name="Names" color="7" fill="1" visible="yes" active="yes"/>
<layer number="96" name="Values" color="7" fill="1" visible="yes" active="yes"/>
<layer number="97" name="Info" color="7" fill="1" visible="yes" active="yes"/>
<layer number="98" name="Guide" color="6" fill="1" visible="yes" active="yes"/>
</layers>
<library>
<packages>
<package name="BELFUSE_SS-52400-003">
<wire x1="-4.27" y1="5.355" x2="-3.945" y2="5.03" width="0" layer="46" curve="-90"/>
<wire x1="-3.945" y1="5.03" x2="-3.945" y2="4.43" width="0" layer="46"/>
<wire x1="-3.945" y1="4.43" x2="-4.27" y2="4.105" width="0" layer="46" curve="-90"/>
<wire x1="-4.27" y1="4.105" x2="-4.595" y2="4.43" width="0" layer="46" curve="-90"/>
<wire x1="-4.595" y1="4.43" x2="-4.595" y2="5.03" width="0" layer="46"/>
<wire x1="-4.595" y1="5.03" x2="-4.27" y2="5.355" width="0" layer="46" curve="-90"/>
<wire x1="4.27" y1="5.355" x2="4.595" y2="5.03" width="0" layer="46" curve="-90"/>
<wire x1="4.595" y1="5.03" x2="4.595" y2="4.43" width="0" layer="46"/>
<wire x1="4.595" y1="4.43" x2="4.27" y2="4.105" width="0" layer="46" curve="-90"/>
<wire x1="4.27" y1="4.105" x2="3.945" y2="4.43" width="0" layer="46" curve="-90"/>
<wire x1="3.945" y1="4.43" x2="3.945" y2="5.03" width="0" layer="46"/>
<wire x1="3.945" y1="5.03" x2="4.27" y2="5.355" width="0" layer="46" curve="-90"/>
<wire x1="-4.27" y1="0.625" x2="-3.945" y2="0.3" width="0" layer="46" curve="-90"/>
<wire x1="-3.945" y1="0.3" x2="-3.945" y2="-0.3" width="0" layer="46"/>
<wire x1="-3.945" y1="-0.3" x2="-4.27" y2="-0.625" width="0" layer="46" curve="-90"/>
<wire x1="-4.27" y1="-0.625" x2="-4.595" y2="-0.3" width="0" layer="46" curve="-90"/>
<wire x1="-4.595" y1="-0.3" x2="-4.595" y2="0.3" width="0" layer="46"/>
<wire x1="-4.595" y1="0.3" x2="-4.27" y2="0.625" width="0" layer="46" curve="-90"/>
<wire x1="4.27" y1="0.625" x2="4.595" y2="0.3" width="0" layer="46" curve="-90"/>
<wire x1="4.595" y1="0.3" x2="4.595" y2="-0.3" width="0" layer="46"/>
<wire x1="4.595" y1="-0.3" x2="4.27" y2="-0.625" width="0" layer="46" curve="-90"/>
<wire x1="4.27" y1="-0.625" x2="3.945" y2="-0.3" width="0" layer="46" curve="-90"/>
<wire x1="3.945" y1="-0.3" x2="3.945" y2="0.3" width="0" layer="46"/>
<wire x1="3.945" y1="0.3" x2="4.27" y2="0.625" width="0" layer="46" curve="-90"/>
<wire x1="-4.37" y1="6.8" x2="4.37" y2="6.8" width="0.127" layer="51"/>
<wire x1="4.37" y1="6.8" x2="4.37" y2="-4.4" width="0.127" layer="51"/>
<wire x1="4.37" y1="-4.4" x2="-4.37" y2="-4.4" width="0.127" layer="51"/>
<wire x1="-4.37" y1="-4.4" x2="-4.37" y2="-3.45" width="0.127" layer="51"/>
<wire x1="-4.37" y1="-3.45" x2="-4.37" y2="6.8" width="0.127" layer="51"/>
<wire x1="-4.37" y1="-3.45" x2="7.5" y2="-3.45" width="0.127" layer="51"/>
<text x="5.3" y="-3.3" size="0.3048" layer="51">PCB EDGE</text>
<wire x1="-3.22" y1="6.8" x2="-4.37" y2="6.8" width="0.127" layer="21"/>
<wire x1="-4.37" y1="6.8" x2="-4.37" y2="6.1" width="0.127" layer="21"/>
<wire x1="3.22" y1="6.8" x2="4.37" y2="6.8" width="0.127" layer="21"/>
<wire x1="4.37" y1="6.8" x2="4.37" y2="6.1" width="0.127" layer="21"/>
<wire x1="-4.37" y1="-1.37" x2="-4.37" y2="-3.45" width="0.127" layer="21"/>
<wire x1="-4.37" y1="-3.45" x2="4.37" y2="-3.45" width="0.127" layer="21"/>
<wire x1="4.37" y1="-3.45" x2="4.37" y2="-1.37" width="0.127" layer="21"/>
<wire x1="-3.1" y1="7.05" x2="-5.045" y2="7.05" width="0.05" layer="39"/>
<wire x1="-5.045" y1="7.05" x2="-5.045" y2="-4.65" width="0.05" layer="39"/>
<wire x1="-5.045" y1="-4.65" x2="5.045" y2="-4.65" width="0.05" layer="39"/>
<wire x1="5.045" y1="-4.65" x2="5.045" y2="7.05" width="0.05" layer="39"/>
<wire x1="5.045" y1="7.05" x2="3.1" y2="7.05" width="0.05" layer="39"/>
<wire x1="3.1" y1="7.05" x2="3.1" y2="7.98" width="0.05" layer="39"/>
<wire x1="3.1" y1="7.98" x2="-3.1" y2="7.98" width="0.05" layer="39"/>
<wire x1="-3.1" y1="7.98" x2="-3.1" y2="7.05" width="0.05" layer="39"/>
<circle x="-2.8" y="8.4" radius="0.1" width="0.2" layer="21"/>
<circle x="-2.8" y="8.4" radius="0.1" width="0.2" layer="51"/>
<text x="-3.6" y="8.4" size="1.27" layer="25">&gt;NAME</text>
<text x="-3.6" y="-6.1" size="1.27" layer="27">&gt;VALUE</text>
<pad name="S1" x="-4.27" y="4.73" drill="0.65" diameter="1.05" shape="long" rot="R90"/>
<pad name="S2" x="4.27" y="4.73" drill="0.65" diameter="1.05" shape="long" rot="R90"/>
<pad name="S3" x="-4.27" y="0" drill="0.65" diameter="1.05" shape="long" rot="R90"/>
<pad name="S4" x="4.27" y="0" drill="0.65" diameter="1.05" shape="long" rot="R90"/>
<smd name="A1" x="-2.75" y="7.13" dx="0.3" dy="1.2" layer="1"/>
<smd name="A2" x="-2.25" y="7.13" dx="0.3" dy="1.2" layer="1"/>
<smd name="A3" x="-1.75" y="7.13" dx="0.3" dy="1.2" layer="1"/>
<smd name="A4" x="-1.25" y="7.13" dx="0.3" dy="1.2" layer="1"/>
<smd name="A5" x="-0.75" y="7.13" dx="0.3" dy="1.2" layer="1"/>
<smd name="A6" x="-0.25" y="7.13" dx="0.3" dy="1.2" layer="1"/>
<smd name="A7" x="0.25" y="7.13" dx="0.3" dy="1.2" layer="1"/>
<smd name="A8" x="0.75" y="7.13" dx="0.3" dy="1.2" layer="1"/>
<smd name="A9" x="1.25" y="7.13" dx="0.3" dy="1.2" layer="1"/>
<smd name="A10" x="1.75" y="7.13" dx="0.3" dy="1.2" layer="1"/>
<smd name="A11" x="2.25" y="7.13" dx="0.3" dy="1.2" layer="1"/>
<smd name="A12" x="2.75" y="7.13" dx="0.3" dy="1.2" layer="1"/>
<pad name="B1" x="2.8" y="5.88" drill="0.45" diameter="0.65"/>
<pad name="B2" x="2.4" y="5.17" drill="0.45" diameter="0.65"/>
<pad name="B3" x="1.6" y="5.17" drill="0.45" diameter="0.65"/>
<pad name="B4" x="1.2" y="5.88" drill="0.45" diameter="0.65"/>
<pad name="B5" x="0.8" y="5.17" drill="0.45" diameter="0.65"/>
<pad name="B6" x="0.4" y="5.88" drill="0.45" diameter="0.65"/>
<pad name="B7" x="-0.4" y="5.88" drill="0.45" diameter="0.65"/>
<pad name="B8" x="-0.8" y="5.17" drill="0.45" diameter="0.65"/>
<pad name="B9" x="-1.2" y="5.88" drill="0.45" diameter="0.65"/>
<pad name="B10" x="-1.6" y="5.17" drill="0.45" diameter="0.65"/>
<pad name="B11" x="-2.4" y="5.17" drill="0.45" diameter="0.65"/>
<pad name="B12" x="-2.8" y="5.88" drill="0.45" diameter="0.65"/>
<pad name="G2" x="-2" y="5.88" drill="0.45" diameter="0.65"/>
<pad name="G1" x="2" y="5.88" drill="0.45" diameter="0.65"/>
<smd name="G3" x="0" y="2.55" dx="0.2" dy="1" layer="1"/>
<smd name="G4" x="0" y="-0.55" dx="0.2" dy="1" layer="1"/>
</package>
</packages>
<symbols>
<symbol name="SS-52400-003">
<wire x1="-15.24" y1="17.78" x2="15.24" y2="17.78" width="0.254" layer="94"/>
<wire x1="15.24" y1="17.78" x2="15.24" y2="-20.32" width="0.254" layer="94"/>
<wire x1="15.24" y1="-20.32" x2="-15.24" y2="-20.32" width="0.254" layer="94"/>
<wire x1="-15.24" y1="-20.32" x2="-15.24" y2="17.78" width="0.254" layer="94"/>
<text x="-15.24" y="19.05" size="1.778" layer="95">&gt;NAME</text>
<text x="-15.24" y="-22.86" size="1.778" layer="96">&gt;VALUE</text>
<pin name="GNDA1" x="-20.32" y="15.24" length="middle" direction="pwr"/>
<pin name="GNDB1" x="20.32" y="15.24" length="middle" direction="pwr" rot="R180"/>
<pin name="SSTXP1" x="-20.32" y="12.7" length="middle"/>
<pin name="SSTXN1" x="-20.32" y="10.16" length="middle"/>
<pin name="VBUSA1" x="-20.32" y="7.62" length="middle" direction="pwr"/>
<pin name="CC1" x="-20.32" y="5.08" length="middle"/>
<pin name="DP1" x="-20.32" y="2.54" length="middle"/>
<pin name="DN1" x="-20.32" y="0" length="middle"/>
<pin name="SBU1" x="-20.32" y="-2.54" length="middle"/>
<pin name="VBUSA2" x="-20.32" y="-5.08" length="middle" direction="pwr"/>
<pin name="SSRXN2" x="-20.32" y="-7.62" length="middle"/>
<pin name="SSRXP2" x="-20.32" y="-10.16" length="middle"/>
<pin name="GNDA2" x="-20.32" y="-12.7" length="middle" direction="pwr"/>
<pin name="SSTXP2" x="20.32" y="12.7" length="middle" rot="R180"/>
<pin name="SSTXN2" x="20.32" y="10.16" length="middle" rot="R180"/>
<pin name="VBUSB1" x="20.32" y="7.62" length="middle" direction="pwr" rot="R180"/>
<pin name="CC2" x="20.32" y="5.08" length="middle" rot="R180"/>
<pin name="DP2" x="20.32" y="2.54" length="middle" rot="R180"/>
<pin name="DN2" x="20.32" y="0" length="middle" rot="R180"/>
<pin name="SBU2" x="20.32" y="-2.54" length="middle" rot="R180"/>
<pin name="VBUSB2" x="20.32" y="-5.08" length="middle" direction="pwr" rot="R180"/>
<pin name="SSRXN1" x="20.32" y="-7.62" length="middle" rot="R180"/>
<pin name="SSRXP1" x="20.32" y="-10.16" length="middle" rot="R180"/>
<pin name="GNDB2" x="20.32" y="-12.7" length="middle" direction="pwr" rot="R180"/>
<pin name="GND/SHIELD" x="20.32" y="-17.78" length="middle" direction="pwr" rot="R180"/>
</symbol>
</symbols>
<devicesets>
<deviceset name="SS-52400-003" prefix="J">
<description>USB Type-C Connector | 1 Port | Right Angle Receptacle | Shielded | 0.039"[1.00mm] &lt;a href="https://pricing.snapeda.com/parts/SS-52400-003/Stewart%20Connector/view-part?ref=eda"&gt;Check prices&lt;/a&gt;</description>
<gates>
<gate name="G$1" symbol="SS-52400-003" x="0" y="0"/>
</gates>
<devices>
<device name="" package="BELFUSE_SS-52400-003">
<connects>
<connect gate="G$1" pin="CC1" pad="A5"/>
<connect gate="G$1" pin="CC2" pad="B5"/>
<connect gate="G$1" pin="DN1" pad="A7"/>
<connect gate="G$1" pin="DN2" pad="B7"/>
<connect gate="G$1" pin="DP1" pad="A6"/>
<connect gate="G$1" pin="DP2" pad="B6"/>
<connect gate="G$1" pin="GND/SHIELD" pad="G1 G2 G3 G4 S1 S2 S3 S4"/>
<connect gate="G$1" pin="GNDA1" pad="A1"/>
<connect gate="G$1" pin="GNDA2" pad="A12"/>
<connect gate="G$1" pin="GNDB1" pad="B1"/>
<connect gate="G$1" pin="GNDB2" pad="B12"/>
<connect gate="G$1" pin="SBU1" pad="A8"/>
<connect gate="G$1" pin="SBU2" pad="B8"/>
<connect gate="G$1" pin="SSRXN1" pad="B10"/>
<connect gate="G$1" pin="SSRXN2" pad="A10"/>
<connect gate="G$1" pin="SSRXP1" pad="B11"/>
<connect gate="G$1" pin="SSRXP2" pad="A11"/>
<connect gate="G$1" pin="SSTXN1" pad="A3"/>
<connect gate="G$1" pin="SSTXN2" pad="B3"/>
<connect gate="G$1" pin="SSTXP1" pad="A2"/>
<connect gate="G$1" pin="SSTXP2" pad="B2"/>
<connect gate="G$1" pin="VBUSA1" pad="A4"/>
<connect gate="G$1" pin="VBUSA2" pad="A9"/>
<connect gate="G$1" pin="VBUSB1" pad="B4"/>
<connect gate="G$1" pin="VBUSB2" pad="B9"/>
</connects>
<technologies>
<technology name="">
<attribute name="Description" value="
USB Type-C Connector | 1 Port | Right Angle Receptacle | Shielded | 0.063[1.60mm]
"/>
<attribute name="Package" value="None"/>
<attribute name="MP" value="SS-52400-003"/>
<attribute name="Availability" value="Warning"/>
<attribute name="Price" value="None"/>
<attribute name="MF" value="Stewart Connector"/>
<attribute name="Purchase-URL" value="https://pricing.snapeda.com/search/part/SS-52400-003/?ref=eda"/>
</technology>
</technologies>
</device>
</devices>
</deviceset>
</devicesets>
</library>
</drawing>
</eagle>
